^C:\USERS\MARKF\SOURCE\REPOS\SPAWN_HOOKER\SPAWN\STDAFX.CPP
/c /IC:\USERS\MARKF\SOURCE\REPOS\SPAWN_HOOKER\PACKAGES\EASYHOOKNATIVEPACKAGE.2.7.6789\BUILD\NATIVE\../..//BUILD/NATIVE/INCLUDE/ /ZI /nologo /W3 /WX- /diagnostics:classic /sdl /Od /Oy- /D WIN32 /D _DEBUG /D SPAWN_EXPORTS /D _WINDOWS /D _USRDLL /D _WINDLL /D _UNICODE /D UNICODE /Gm- /EHsc /RTC1 /MDd /GS /fp:precise /permissive- /Zc:wchar_t /Zc:forScope /Zc:inline /Yc"stdafx.h" /Fp"DEBUG\SPAWN.PCH" /Fo"DEBUG\\" /Fd"DEBUG\VC141.PDB" /Gd /TP /analyze- /FC C:\USERS\MARKF\SOURCE\REPOS\SPAWN_HOOKER\SPAWN\STDAFX.CPP
^C:\USERS\MARKF\SOURCE\REPOS\SPAWN_HOOKER\SPAWN\DLLMAIN.CPP
/c /IC:\USERS\MARKF\SOURCE\REPOS\SPAWN_HOOKER\PACKAGES\EASYHOOKNATIVEPACKAGE.2.7.6789\BUILD\NATIVE\../..//BUILD/NATIVE/INCLUDE/ /ZI /nologo /W3 /WX- /diagnostics:classic /sdl /Od /Oy- /D WIN32 /D _DEBUG /D SPAWN_EXPORTS /D _WINDOWS /D _USRDLL /D _WINDLL /D _UNICODE /D UNICODE /Gm- /EHsc /RTC1 /MDd /GS /fp:precise /permissive- /Zc:wchar_t /Zc:forScope /Zc:inline /Yu"stdafx.h" /Fp"DEBUG\SPAWN.PCH" /Fo"DEBUG\\" /Fd"DEBUG\VC141.PDB" /Gd /TP /analyze- /FC C:\USERS\MARKF\SOURCE\REPOS\SPAWN_HOOKER\SPAWN\DLLMAIN.CPP
^C:\USERS\MARKF\SOURCE\REPOS\SPAWN_HOOKER\SPAWN\SPAWN.CPP
/c /IC:\USERS\MARKF\SOURCE\REPOS\SPAWN_HOOKER\PACKAGES\EASYHOOKNATIVEPACKAGE.2.7.6789\BUILD\NATIVE\../..//BUILD/NATIVE/INCLUDE/ /ZI /nologo /W3 /WX- /diagnostics:classic /sdl /Od /Oy- /D WIN32 /D _DEBUG /D SPAWN_EXPORTS /D _WINDOWS /D _USRDLL /D _WINDLL /D _UNICODE /D UNICODE /Gm- /EHsc /RTC1 /MDd /GS /fp:precise /permissive- /Zc:wchar_t /Zc:forScope /Zc:inline /Yu"stdafx.h" /Fp"DEBUG\SPAWN.PCH" /Fo"DEBUG\\" /Fd"DEBUG\VC141.PDB" /Gd /TP /analyze- /FC C:\USERS\MARKF\SOURCE\REPOS\SPAWN_HOOKER\SPAWN\SPAWN.CPP
