^C:\USERS\MARKF\SOURCE\REPOS\SPAWN_HOOKER\SPAWN\DEBUG\DLLMAIN.OBJ|C:\USERS\MARKF\SOURCE\REPOS\SPAWN_HOOKER\SPAWN\DEBUG\SPAWN.OBJ|C:\USERS\MARKF\SOURCE\REPOS\SPAWN_HOOKER\SPAWN\DEBUG\STDAFX.OBJ
C:\USERS\MARKF\SOURCE\REPOS\SPAWN_HOOKER\DEBUG\SPAWN.DLL
C:\USERS\MARKF\SOURCE\REPOS\SPAWN_HOOKER\DEBUG\SPAWN.ILK
C:\USERS\MARKF\SOURCE\REPOS\SPAWN_HOOKER\DEBUG\SPAWN.PDB
